[
  {
    "outputFileName": "Content/bootstrap/vendor/datatables/dataTables.buttons.min.js",
    "inputFiles": [
      "Content/bootstrap/vendor/datatables/dataTables.buttons.js"
    ]
  },
  {
    "outputFileName": "Content/bootstrap/vendor/datatables/jszip.min.js",
    "inputFiles": [
      "Content/bootstrap/vendor/datatables/jszip.js"
    ]
  },
  {
    "outputFileName": "Content/bootstrap/vendor/datatables/buttons.flash.min.js",
    "inputFiles": [
      "Content/bootstrap/vendor/datatables/buttons.flash.js"
    ]
  },
  {
    "outputFileName": "Content/bootstrap/vendor/datatables/pdfmake.min.js",
    "inputFiles": [
      "Content/bootstrap/vendor/datatables/pdfmake.js"
    ]
  },
  {
    "outputFileName": "Content/bootstrap/vendor/datatables/buttons.html5.min.js",
    "inputFiles": [
      "Content/bootstrap/vendor/datatables/buttons.html5.js"
    ]
  },
  {
    "outputFileName": "Scripts/jquery.multi-select.min.js",
    "inputFiles": [
      "Scripts/jquery.multi-select.js"
    ]
  },
  {
    "outputFileName": "Scripts/planetshakers.events.administration.min.js",
    "inputFiles": [
      "Scripts/planetshakers.events.administration.js"
    ]
  },
  {
    "outputFileName": "Scripts/planetshakers.events.management.min.js",
    "inputFiles": [
      "Scripts/planetshakers.events.management.js"
    ]
  },
  {
    "outputFileName": "Scripts/planetshakers.events.report.min.js",
    "inputFiles": [
      "Scripts/planetshakers.events.report.js"
    ]
  },
  {
    "outputFileName": "Scripts/planetshakers.events.setup.min.js",
    "inputFiles": [
      "Scripts/planetshakers.events.setup.js"
    ]
  },
  {
    "outputFileName": "Scripts/planetshakers.events.transfer.min.js",
    "inputFiles": [
      "Scripts/planetshakers.events.transfer.js"
    ]
  },
  {
    "outputFileName": "Scripts/planetshakers.events.vip.min.js",
    "inputFiles": [
      "Scripts/planetshakers.events.vip.js"
    ]
  },
  {
    "outputFileName": "Scripts/planetshakers.min.js",
    "inputFiles": [
      "Scripts/planetshakers.js"
    ]
  }
]
